%!PS-Adobe-3.0 EPSF-3.0
%%DocumentNeededResources: font Helvetica
%%+ font Helvetica-Bold
%%+ font Helvetica-Oblique
%%+ font Helvetica-BoldOblique
%%+ font Symbol
%%Title: R Graphics Output
%%Creator: R Software
%%Pages: (atend)
%%BoundingBox: 0 0 720 288
%%EndComments
%%BeginProlog
/bp  { gs sRGB gs } def
% begin .ps.prolog
/gs  { gsave } bind def
/gr  { grestore } bind def
/ep  { showpage gr gr } bind def
/m   { moveto } bind def
/l  { rlineto } bind def
/np  { newpath } bind def
/cp  { closepath } bind def
/f   { fill } bind def
/o   { stroke } bind def
/c   { newpath 0 360 arc } bind def
/r   { 4 2 roll moveto 1 copy 3 -1 roll exch 0 exch rlineto 0 rlineto -1 mul 0 exch rlineto closepath } bind def
/p1  { stroke } bind def
/p2  { gsave bg fill grestore newpath } bind def
/p3  { gsave bg fill grestore stroke } bind def
/p6  { gsave bg eofill grestore newpath } bind def
/p7  { gsave bg eofill grestore stroke } bind def
/t   { 5 -2 roll moveto gsave rotate
       1 index stringwidth pop
       mul neg 0 rmoveto show grestore } bind def
/ta  { 4 -2 roll moveto gsave rotate show } bind def
/tb  { 2 -1 roll 0 rmoveto show } bind def
/cl  { grestore gsave newpath 3 index 3 index moveto 1 index
       4 -1 roll lineto  exch 1 index lineto lineto
       closepath clip newpath } bind def
/rgb { setrgbcolor } bind def
/s   { scalefont setfont } bind def
% end   .ps.prolog
/sRGB { [ /CIEBasedABC
          << /DecodeLMN
               [ { dup 0.03928 le
                        {12.92321 div}
                        {0.055 add 1.055 div 2.4 exp }
                     ifelse
                 } bind dup dup
               ]
             /MatrixLMN [0.412457 0.212673 0.019334
                         0.357576 0.715152 0.119192
                         0.180437 0.072175 0.950301]
             /WhitePoint [0.9505 1.0 1.0890]
           >>
         ] setcolorspace } bind def
/srgb { setcolor } bind def
%%IncludeResource: font Helvetica
/Helvetica findfont
dup length dict begin
  {1 index /FID ne {def} {pop pop} ifelse} forall
  /Encoding ISOLatin1Encoding def
  currentdict
  end
/Font1 exch definefont pop
%%IncludeResource: font Helvetica-Bold
/Helvetica-Bold findfont
dup length dict begin
  {1 index /FID ne {def} {pop pop} ifelse} forall
  /Encoding ISOLatin1Encoding def
  currentdict
  end
/Font2 exch definefont pop
%%IncludeResource: font Helvetica-Oblique
/Helvetica-Oblique findfont
dup length dict begin
  {1 index /FID ne {def} {pop pop} ifelse} forall
  /Encoding ISOLatin1Encoding def
  currentdict
  end
/Font3 exch definefont pop
%%IncludeResource: font Helvetica-BoldOblique
/Helvetica-BoldOblique findfont
dup length dict begin
  {1 index /FID ne {def} {pop pop} ifelse} forall
  /Encoding ISOLatin1Encoding def
  currentdict
  end
/Font4 exch definefont pop
%%IncludeResource: font Symbol
/Symbol findfont
dup length dict begin
  {1 index /FID ne {def} {pop pop} ifelse} forall
  currentdict
  end
/Font5 exch definefont pop
%%EndProlog
%%Page: 1 1
bp
/bg { 1 1 1 srgb } def
0.00 0.00 720.00 288.00 r p2
0.00 0.00 720.00 288.00 cl
0.00 0.00 720.00 288.00 cl
0.00 0.00 720.00 288.00 cl
0.00 0.00 720.00 288.00 cl
0.00 0.00 720.00 288.00 cl
0.00 0.00 720.00 288.00 cl
0.00 0.00 720.00 288.00 cl
0.00 0.00 720.00 288.00 cl
0.00 0.00 720.00 288.00 cl
0.00 0.00 720.00 288.00 cl
0.00 0.00 720.00 288.00 cl
0.00 0.00 720.00 288.00 cl
0.00 0.00 720.00 288.00 cl
0.00 0.00 720.00 288.00 cl
0.00 0.00 720.00 288.00 cl
0.00 0.00 720.00 288.00 cl
0.00 0.00 720.00 288.00 cl
0.00 0.00 720.00 288.00 cl
/bg { 1 1 1 srgb } def
1 1 1 srgb
1.07 setlinewidth
[] 0 setdash
1 setlinecap
1 setlinejoin
10.00 setmiterlimit
0.00 0.00 720.00 288.00 r p3
0.00 0.00 720.00 288.00 cl
67.49 46.92 714.52 282.52 cl
/bg { 1 1 1 srgb } def
67.49 46.92 647.03 235.60 r p2
0.9216 0.9216 0.9216 srgb
0.53 setlinewidth
[] 0 setdash
0 setlinecap
1 setlinejoin
10.00 setmiterlimit
np
67.49 80.99 m
647.03 0 l
o
np
67.49 127.99 m
647.03 0 l
o
np
67.49 174.99 m
647.03 0 l
o
np
67.49 221.99 m
647.03 0 l
o
np
67.49 268.99 m
647.03 0 l
o
1.07 setlinewidth
[] 0 setdash
np
67.49 57.49 m
647.03 0 l
o
np
67.49 104.49 m
647.03 0 l
o
np
67.49 151.49 m
647.03 0 l
o
np
67.49 198.49 m
647.03 0 l
o
np
67.49 245.49 m
647.03 0 l
o
np
105.56 46.92 m
0 235.60 l
o
np
168.99 46.92 m
0 235.60 l
o
np
232.42 46.92 m
0 235.60 l
o
np
295.86 46.92 m
0 235.60 l
o
np
359.29 46.92 m
0 235.60 l
o
np
422.72 46.92 m
0 235.60 l
o
np
486.16 46.92 m
0 235.60 l
o
np
549.59 46.92 m
0 235.60 l
o
np
613.03 46.92 m
0 235.60 l
o
np
676.46 46.92 m
0 235.60 l
o
/bg { 0.6824 0.1922 0.1294 srgb } def
676.46 59.20 3.56 c p2
105.56 57.63 3.56 c p2
168.99 57.80 3.56 c p2
232.42 57.98 3.56 c p2
295.86 58.15 3.56 c p2
359.29 58.33 3.56 c p2
422.72 58.51 3.56 c p2
486.16 58.68 3.56 c p2
549.59 58.85 3.56 c p2
613.03 59.02 3.56 c p2
/bg { 0 0.4667 0 srgb } def
np
 672.90 268.26 m
7.12 0 l
0 7.11 l
-7.12 0 l
cp p2
np
 102.00 54.72 m
7.11 0 l
0 7.11 l
-7.11 0 l
cp p2
np
 165.43 57.26 m
7.11 0 l
0 7.11 l
-7.11 0 l
cp p2
np
 228.87 63.41 m
7.11 0 l
0 7.11 l
-7.11 0 l
cp p2
np
 292.30 75.08 m
7.11 0 l
0 7.11 l
-7.11 0 l
cp p2
np
 355.74 93.18 m
7.11 0 l
0 7.11 l
-7.11 0 l
cp p2
np
 419.17 114.58 m
7.11 0 l
0 7.11 l
-7.11 0 l
cp p2
np
 482.60 143.66 m
7.11 0 l
0 7.11 l
-7.11 0 l
cp p2
np
 546.04 178.27 m
7.11 0 l
0 7.11 l
-7.11 0 l
cp p2
np
 609.47 216.69 m
7.11 0 l
0 7.11 l
-7.11 0 l
cp p2
/bg { 0 0.3608 0.8000 srgb } def
np
 676.46 163.13 m
4.79 -8.29 l
-9.58 0 l
cp p2
np
 105.56 63.79 m
4.78 -8.29 l
-9.57 0 l
cp p2
np
 168.99 68.24 m
4.79 -8.30 l
-9.58 0 l
cp p2
np
 232.42 73.41 m
4.79 -8.29 l
-9.58 0 l
cp p2
np
 295.86 77.80 m
4.78 -8.30 l
-9.57 0 l
cp p2
np
 359.29 85.87 m
4.79 -8.29 l
-9.58 0 l
cp p2
np
 422.72 94.68 m
4.79 -8.30 l
-9.57 0 l
cp p2
np
 486.16 108.80 m
4.79 -8.29 l
-9.58 0 l
cp p2
np
 549.59 123.22 m
4.79 -8.29 l
-9.58 0 l
cp p2
np
 613.03 141.04 m
4.78 -8.29 l
-9.57 0 l
cp p2
0.6824 0.1922 0.1294 srgb
np
105.56 57.63 m
63.43 0.17 l
63.43 0.18 l
63.44 0.17 l
63.43 0.18 l
63.43 0.18 l
63.44 0.17 l
63.43 0.17 l
63.44 0.17 l
63.43 0.18 l
o
0 0.4667 0 srgb
np
105.56 58.27 m
63.43 2.54 l
63.43 6.16 l
63.44 11.67 l
63.43 18.10 l
63.43 21.39 l
63.44 29.08 l
63.43 34.62 l
63.44 38.41 l
63.43 51.57 l
o
0 0.3608 0.8000 srgb
np
105.56 58.26 m
63.43 4.45 l
63.43 5.17 l
63.44 4.39 l
63.43 8.07 l
63.43 8.81 l
63.44 14.12 l
63.43 14.42 l
63.44 17.82 l
63.43 22.10 l
o
0.2000 0.2000 0.2000 srgb
1 setlinecap
67.49 46.92 647.03 235.60 r p1
0.00 0.00 720.00 288.00 cl
0.00 0.00 720.00 288.00 cl
0.00 0.00 720.00 288.00 cl
0.00 0.00 720.00 288.00 cl
0.00 0.00 720.00 288.00 cl
0.00 0.00 720.00 288.00 cl
0.00 0.00 720.00 288.00 cl
0.00 0.00 720.00 288.00 cl
0.00 0.00 720.00 288.00 cl
0.00 0.00 720.00 288.00 cl
0.00 0.00 720.00 288.00 cl
0.00 0.00 720.00 288.00 cl
0.00 0.00 720.00 288.00 cl
0.00 0.00 720.00 288.00 cl
0.00 0.00 720.00 288.00 cl
0.00 0.00 720.00 288.00 cl
/Font1 findfont 16 s
0.3020 0.3020 0.3020 srgb
62.56 51.75 (0) 1 0 t
62.56 98.75 (500) 1 0 t
62.56 145.75 (1000) 1 0 t
62.56 192.75 (1500) 1 0 t
62.56 239.75 (2000) 1 0 t
0.00 0.00 720.00 288.00 cl
0.00 0.00 720.00 288.00 cl
0.2000 0.2000 0.2000 srgb
1.07 setlinewidth
[] 0 setdash
0 setlinecap
1 setlinejoin
10.00 setmiterlimit
np
64.75 57.49 m
2.74 0 l
o
np
64.75 104.49 m
2.74 0 l
o
np
64.75 151.49 m
2.74 0 l
o
np
64.75 198.49 m
2.74 0 l
o
np
64.75 245.49 m
2.74 0 l
o
0.00 0.00 720.00 288.00 cl
0.00 0.00 720.00 288.00 cl
0.00 0.00 720.00 288.00 cl
0.00 0.00 720.00 288.00 cl
0.00 0.00 720.00 288.00 cl
0.00 0.00 720.00 288.00 cl
0.00 0.00 720.00 288.00 cl
0.00 0.00 720.00 288.00 cl
0.00 0.00 720.00 288.00 cl
0.00 0.00 720.00 288.00 cl
0.2000 0.2000 0.2000 srgb
1.07 setlinewidth
[] 0 setdash
0 setlinecap
1 setlinejoin
10.00 setmiterlimit
np
105.56 44.18 m
0 2.74 l
o
np
168.99 44.18 m
0 2.74 l
o
np
232.42 44.18 m
0 2.74 l
o
np
295.86 44.18 m
0 2.74 l
o
np
359.29 44.18 m
0 2.74 l
o
np
422.72 44.18 m
0 2.74 l
o
np
486.16 44.18 m
0 2.74 l
o
np
549.59 44.18 m
0 2.74 l
o
np
613.03 44.18 m
0 2.74 l
o
np
676.46 44.18 m
0 2.74 l
o
0.00 0.00 720.00 288.00 cl
0.00 0.00 720.00 288.00 cl
/Font1 findfont 16 s
0.3020 0.3020 0.3020 srgb
105.56 30.50 (10k) .5 0 t
168.99 30.50 (20k) .5 0 t
232.42 30.50 (30k) .5 0 t
295.86 30.50 (40k) .5 0 t
359.29 30.50 (50k) .5 0 t
422.72 30.50 (60k) .5 0 t
486.16 30.50 (70k) .5 0 t
549.59 30.50 (80k) .5 0 t
613.03 30.50 (90k) .5 0 t
676.46 30.50 (100k) .5 0 t
0.00 0.00 720.00 288.00 cl
0.00 0.00 720.00 288.00 cl
0.00 0.00 720.00 288.00 cl
0.00 0.00 720.00 288.00 cl
0.00 0.00 720.00 288.00 cl
0.00 0.00 720.00 288.00 cl
/Font1 findfont 20 s
0 0 0 srgb
206.48 9.88 (Number of oper) 0 ta
-0.200 (ations) tb
-0.300 (, each with 3 e) tb
-0.600 (v) tb
-0.500 (ents) tb gr
0.00 0.00 720.00 288.00 cl
0.00 0.00 720.00 288.00 cl
/Font1 findfont 20 s
0 0 0 srgb
19.84 84.70 (Ex) 90 ta
-0.600 (ecution time \(s\)) tb gr
0.00 0.00 720.00 288.00 cl
0.00 0.00 720.00 288.00 cl
0.00 0.00 720.00 288.00 cl
0.00 0.00 720.00 288.00 cl
0.00 0.00 720.00 288.00 cl
0.00 0.00 720.00 288.00 cl
0.00 0.00 720.00 288.00 cl
0.00 0.00 720.00 288.00 cl
/bg { 1 1 1 srgb } def
0 0 0 srgb
1.07 setlinewidth
[] 0 setdash
1 setlinecap
1 setlinejoin
10.00 setmiterlimit
97.86 163.86 198.08 95.96 r p3
0.00 0.00 720.00 288.00 cl
0.00 0.00 720.00 288.00 cl
0.00 0.00 720.00 288.00 cl
0.00 0.00 720.00 288.00 cl
/Font2 findfont 20 s
0 0 0 srgb
103.34 237.78 (T) 0 ta
-1.600 (ool) tb gr
0.00 0.00 720.00 288.00 cl
0.00 0.00 720.00 288.00 cl
0.00 0.00 720.00 288.00 cl
/bg { 1 1 1 srgb } def
103.34 206.86 17.28 18.76 r p2
0.00 0.00 720.00 288.00 cl
0.00 0.00 720.00 288.00 cl
/bg { 0 0.4667 0 srgb } def
np
 108.42 212.68 m
7.11 0 l
0 7.11 l
-7.11 0 l
cp p2
0.00 0.00 720.00 288.00 cl
0.00 0.00 720.00 288.00 cl
0 0.4667 0 srgb
1.07 setlinewidth
[] 0 setdash
0 setlinecap
1 setlinejoin
10.00 setmiterlimit
np
105.07 216.24 m
13.82 0 l
o
0.00 0.00 720.00 288.00 cl
0.00 0.00 720.00 288.00 cl
/bg { 1 1 1 srgb } def
103.34 188.10 17.28 18.76 r p2
0.00 0.00 720.00 288.00 cl
0.00 0.00 720.00 288.00 cl
/bg { 0.6824 0.1922 0.1294 srgb } def
111.98 197.48 3.56 c p2
0.00 0.00 720.00 288.00 cl
0.00 0.00 720.00 288.00 cl
0.6824 0.1922 0.1294 srgb
1.07 setlinewidth
[] 0 setdash
0 setlinecap
1 setlinejoin
10.00 setmiterlimit
np
105.07 197.48 m
13.82 0 l
o
0.00 0.00 720.00 288.00 cl
0.00 0.00 720.00 288.00 cl
/bg { 1 1 1 srgb } def
103.34 169.34 17.28 18.76 r p2
0.00 0.00 720.00 288.00 cl
0.00 0.00 720.00 288.00 cl
/bg { 0 0.3608 0.8000 srgb } def
np
 111.98 184.25 m
4.79 -8.30 l
-9.58 0 l
cp p2
0.00 0.00 720.00 288.00 cl
0.00 0.00 720.00 288.00 cl
0 0.3608 0.8000 srgb
1.07 setlinewidth
[] 0 setdash
0 setlinecap
1 setlinejoin
10.00 setmiterlimit
np
105.07 178.72 m
13.82 0 l
o
0.00 0.00 720.00 288.00 cl
0.00 0.00 720.00 288.00 cl
0.00 0.00 720.00 288.00 cl
0.00 0.00 720.00 288.00 cl
/Font1 findfont 20 s
0 0 0 srgb
130.58 209.06 (Inter) 0 ta
0.600 (preted nf) tb
-0.600 (er) tb gr
0.00 0.00 720.00 288.00 cl
0.00 0.00 720.00 288.00 cl
0.00 0.00 720.00 288.00 cl
0.00 0.00 720.00 288.00 cl
0.00 0.00 720.00 288.00 cl
/Font1 findfont 20 s
0 0 0 srgb
130.58 190.30 (Compiled nf) 0 ta
-0.600 (er) tb gr
0.00 0.00 720.00 288.00 cl
0.00 0.00 720.00 288.00 cl
0.00 0.00 720.00 288.00 cl
0.00 0.00 720.00 288.00 cl
0.00 0.00 720.00 288.00 cl
/Font1 findfont 20 s
0 0 0 srgb
130.58 171.54 (Compiled T) 0 ta
-2.400 (eSSLa) tb gr
0.00 0.00 720.00 288.00 cl
0.00 0.00 720.00 288.00 cl
0.00 0.00 720.00 288.00 cl
0.00 0.00 720.00 288.00 cl
0.00 0.00 720.00 288.00 cl
0.00 0.00 720.00 288.00 cl
0.00 0.00 720.00 288.00 cl
0.00 0.00 720.00 288.00 cl
0.00 0.00 720.00 288.00 cl
0.00 0.00 720.00 288.00 cl
0.00 0.00 720.00 288.00 cl
0.00 0.00 720.00 288.00 cl
0.00 0.00 720.00 288.00 cl
ep
%%Trailer
%%Pages: 1
%%EOF
